<?xml version="1.0" encoding="utf-8"?>
<!-- Generator: Adobe Illustrator 25.0.1, SVG Export Plug-In . SVG Version: 6.00 Build 0)  -->
<svg version="1.1" id="Layer_1" xmlns="http://www.w3.org/2000/svg" xmlns:xlink="http://www.w3.org/1999/xlink" x="0px" y="0px"
	 viewBox="0 0 60 60" style="enable-background:new 0 0 60 60;" xml:space="preserve">
<style type="text/css">
	.st0{fill:#96C33C;}
	.st1{fill:none;stroke:#000000;stroke-width:2;stroke-miterlimit:10;}
	.st2{fill:none;stroke:#96C33C;stroke-width:2;stroke-miterlimit:10;}
	.st3{fill:none;stroke:#96C33C;stroke-width:2.1053;stroke-miterlimit:10;}
	.st4{fill:none;stroke:#FFFFFF;stroke-width:2;stroke-miterlimit:10;}
	.st5{fill:none;stroke:#C4C4C4;stroke-width:2;stroke-miterlimit:10;}
	.st6{fill:#FFFFFF;}
	.st7{fill:none;}
</style>
<g>
	<path d="M30,16.5c-7.4,0-13.5,6.1-13.5,13.5S22.6,43.5,30,43.5S43.5,37.4,43.5,30S37.4,16.5,30,16.5z M40.6,25.5l-1,0.4
		c-1.3,0.5-1.8,2-1.3,3.3l0.2,0.4c0.1,0.2,0,0.5-0.2,0.6l-0.9,0.5c-0.2,0.1-0.5,0-0.6-0.2l-3.3-4.7c-0.6-0.8-1.6-1.2-2.6-1l-4.1,0.9
		c-0.2,0-0.4,0-0.4-0.1c-0.1-0.1-0.2-0.2-0.2-0.4c0-0.2,0.2-0.4,0.4-0.4l1.1-0.3c0.7-0.2,1.3-0.7,1.6-1.4l0.7-1.6
		c0.1-0.2,0.2-0.3,0.4-0.3l5.3-1.3l0,0C37.8,21.2,39.5,23.1,40.6,25.5z M28,41.3v-3.4c0-1.4-1.1-2.5-2.5-2.5h-2.2
		c-0.2,0-0.4-0.1-0.5-0.3l-1.1-2.8c-0.1-0.2,0-0.4,0.1-0.5l1.6-1.6c0.1-0.1,0.2-0.2,0.4-0.2h6.8c0.2,0,0.3,0.1,0.4,0.2l2.6,3.7
		c0.1,0.1,0.1,0.3,0.1,0.5l-3.2,7.1c-0.1,0-0.2,0-0.3,0C29.3,41.5,28.6,41.4,28,41.3z M32.6,41.2l2.7-6c0.3-0.8,0.3-1.7-0.2-2.4
		L32.5,29c-0.5-0.7-1.2-1.1-2-1.1h-6.8c-0.7,0-1.3,0.3-1.8,0.8l-1.5,1.6c-0.7,0.7-0.9,1.7-0.5,2.6l1.1,2.8c0.4,1,1.3,1.6,2.3,1.6
		h2.2c0.3,0,0.5,0.2,0.5,0.5v2.8c-4.4-1.6-7.5-5.8-7.5-10.8c0-6.3,5.2-11.5,11.5-11.5c0.7,0,1.4,0.1,2.1,0.2l-2.2,0.5
		c-0.8,0.1-1.6,0.7-1.9,1.4l-0.7,1.6c-0.1,0.1-0.2,0.2-0.3,0.3l-1.1,0.3c-1,0.3-1.7,1.2-1.8,2.2c-0.1,0.8,0.2,1.6,0.8,2.1
		c0.6,0.5,1.4,0.7,2.2,0.5l4.1-0.9c0.2,0,0.4,0,0.5,0.2l3.3,4.7c0.5,0.7,1.3,1.1,2.1,1.1c0.4,0,0.8-0.1,1.1-0.3l0.9-0.5
		c1.2-0.6,1.7-2,1.2-3.2l-0.2-0.4c-0.1-0.2,0-0.5,0.3-0.6l0.9-0.4c0.2,0.8,0.3,1.7,0.3,2.6C41.5,35.4,37.7,40,32.6,41.2z"/>
	<path d="M46.3,13.7c-1.4-1.4-3.6-1.5-5.1-0.4C37.8,11.1,34,9.9,30,9.9c-9.7,0-17.8,6.7-19.7,16.1C8.4,26.4,7,28,7,30
		c0,2.2,1.8,4,4,4s4-1.8,4-4c0-1.7-1.1-3.2-2.7-3.8c1.8-8.4,9-14.3,17.7-14.3c3.5,0,6.9,1,9.8,2.9c-0.7,1.5-0.5,3.3,0.8,4.5
		c0.8,0.8,1.8,1.2,2.8,1.2c1,0,2-0.4,2.8-1.2C47.8,17.8,47.8,15.3,46.3,13.7z M13,30c0,1.1-0.9,2-2,2s-2-0.9-2-2s0.9-2,2-2
		S13,28.9,13,30z M44.8,18c-0.8,0.8-2,0.8-2.8,0c-0.8-0.8-0.8-2,0-2.8c0.4-0.4,0.9-0.6,1.4-0.6c0.5,0,1,0.2,1.4,0.6
		C45.6,15.9,45.6,17.2,44.8,18z"/>
</g>
</svg>
